Statistical Graphics and Visualization 36-315 Spring 25 – Visualizing Text Data
…
TF-IDF example with characters

Compute and join TF-IDF using bind_tf_idf():

character_token_summary <- tidy_dinner_party_tokens |>
  group_by(character, stem) |> 
  count() |>
  ungroup() 

character_token_summary <- character_token_summary |>
  bind_tf_idf(stem, character, n) 
character_token_summary

# A tibble: 597 × 6
   character stem        n     tf   idf tf_idf
   <chr>     <chr>   <int>  <dbl> <dbl>  <dbl>
 1 All       cheer       1 1      2.77  2.77  
 2 Andy      anim        1 0.0476 2.77  0.132 
 3 Andy      bet         1 0.0476 2.08  0.0990
 4 Andy      capit       1 0.0476 2.77  0.132 
 5 Andy      dinner      1 0.0476 0.981 0.0467
 6 Andy      flower      2 0.0952 2.77  0.264 
 7 Andy      hei         1 0.0476 1.39  0.0660
 8 Andy      helena      1 0.0476 2.77  0.132 
 9 Andy      hump        2 0.0952 2.77  0.264 
10 Andy      michael     1 0.0476 0.981 0.0467
# ℹ 587 more rows
…
