Statistical Graphics and Visualization 36-315 Spring 25 – Sentiment Analysis and Topic Models
…
TF-IDF example with characters

Compute and join TF-IDF using bind_tf_idf():

character_token_summary <- tidy_dinner_party_tokens |>
  group_by(character, stem) |> 
  count() |>
  ungroup() 

character_token_summary <- character_token_summary |>
  bind_tf_idf(stem, character, n) 
character_token_summary

# A tibble: 597 × 6
   character stem        n     tf   idf tf_idf
   <chr>     <chr>   <int>  <dbl> <dbl>  <dbl>
 1 All       cheer       1 1      2.77  2.77  
 2 Andy      anim        1 0.0476 2.77  0.132 
 3 Andy      bet         1 0.0476 2.08  0.0990
 4 Andy      capit       1 0.0476 2.77  0.132 
 5 Andy      dinner      1 0.0476 0.981 0.0467
 6 Andy      flower      2 0.0952 2.77  0.264 
 7 Andy      hei         1 0.0476 1.39  0.0660
 8 Andy      helena      1 0.0476 2.77  0.132 
 9 Andy      hump        2 0.0952 2.77  0.264 
10 Andy      michael     1 0.0476 0.981 0.0467
# ℹ 587 more rows
…
Find a sentiment dictionary (e.g., “positive” and “negative” words)

Count the number of words belonging to each sentiment

Using the counts, you can compute an “average sentiment” (e.g., positive counts - negative counts)

This is called a dictionary-based approach

The Bing dictionary (named after Bing Liu) provides 6,786 words that are either “positive” or “negative”

Character sentiment analysis

get_sentiments("bing")

# A tibble: 6,786 × 2
   word        sentiment
   <chr>       <chr>    
 1 2-faces     negative 
 2 abnormal    negative 
 3 abolish     negative 
 4 abominable  negative 
 5 abominably  negative 
 6 abominate   negative 
 7 abomination negative 
 8 abort       negative 
 9 aborted     negative 
10 aborts      negative 
# ℹ 6,776 more rows
…
There are two quantities we’ll grab from LDA:

gamma: Topic proportions for each document

beta: Word probabilities for each topic

Working with \(\beta\)s

For any topic \(t\), we’ll have probabilities \(\beta_1^{(t)},\dots,\beta_J^{(t)}\)

st_topics <- tidy(st_lda, matrix = "beta")
st_topics

# A tibble: 14,452 × 3
   topic term      beta
   <int> <chr>    <dbl>
 1     1 00    8.62e- 4
 2     2 00    6.96e- 4
 3     1 10    2.40e- 4
 4     2 10    4.64e- 5
 5     1 100   3.32e- 4
 6     2 100   9.72e- 5
 7     1 12    2.38e- 4
 8     2 12    4.89e- 5
 9     1 12.3  4.81e- 5
10     2 12.3  1.11e-90
# ℹ 14,442 more rows
…
