Demo 09: Visualizing trends – Statistical Graphics and Visualization 36-315 Spring 25
…
Demo 09: Visualizing trends

PhDs Awarded by Field Over Time

In this demo, we’ll first work with a dataset on the number of PhD degrees awarded in the US from TidyTuesday.

# Read in the tidytuesday data
library(tidyverse)
phd_field <- read_csv("https://raw.githubusercontent.com/rfordatascience/tidytuesday/master/data/2019/2019-02-19/phd_by_field.csv")
phd_field

# A tibble: 3,370 × 5
   broad_field   major_field                                 field   year n_phds
   <chr>         <chr>                                       <chr>  <dbl>  <dbl>
 1 Life sciences Agricultural sciences and natural resources Agric…  2008    111
 2 Life sciences Agricultural sciences and natural resources Agric…  2008     28
 3 Life sciences Agricultural sciences and natural resources Agric…  2008      3
 4 Life sciences Agricultural sciences and natural resources Agron…  2008     68
 5 Life sciences Agricultural sciences and natural resources Anima…  2008     41
 6 Life sciences Agricultural sciences and natural resources Anima…  2008     18
 7 Life sciences Agricultural sciences and natural resources Anima…  2008     77
 8 Life sciences Agricultural sciences and natural resources Envir…  2008    182
 9 Life sciences Agricultural sciences and natural resources Fishi…  2008     52
10 Life sciences Agricultural sciences and natural resources Food …  2008     96
# ℹ 3,360 more rows
…
