Demo 12: Visualizations and inference for spatial data – Statistical Graphics and Visualization 36-315 Spring 25
…
Load flight data from GitHub

Here we will use a large dataset on GitHub about airline flights across the world. After loading in the raw data, we’ll do some data manipulation to create useful variables for this dataset.

First, we’ll load a dataset on airports across the world:

#  Load and format airports data
airports <- read_csv("https://raw.githubusercontent.com/jpatokal/openflights/master/data/airports.dat",
                     col_names = c("ID", "name", "city", "country", "IATA_FAA", 
                                   "ICAO", "lat", "lon", "altitude", "timezone", "DST"))
# Here's what the data look like:
airports

# A tibble: 7,698 × 14
      ID name   city  country IATA_FAA ICAO    lat   lon altitude timezone DST  
   <dbl> <chr>  <chr> <chr>   <chr>    <chr> <dbl> <dbl>    <dbl> <chr>    <chr>
 1     1 Gorok… Goro… Papua … GKA      AYGA  -6.08 145.      5282 10       U    
 2     2 Madan… Mada… Papua … MAG      AYMD  -5.21 146.        20 10       U    
 3     3 Mount… Moun… Papua … HGU      AYMH  -5.83 144.      5388 10       U    
 4     4 Nadza… Nadz… Papua … LAE      AYNZ  -6.57 147.       239 10       U    
 5     5 Port … Port… Papua … POM      AYPY  -9.44 147.       146 10       U    
 6     6 Wewak… Wewak Papua … WWK      AYWK  -3.58 144.        19 10       U    
 7     7 Narsa… Nars… Greenl… UAK      BGBW  61.2  -45.4      112 -3       E    
 8     8 Godth… Godt… Greenl… GOH      BGGH  64.2  -51.7      283 -3       E    
 9     9 Kange… Sond… Greenl… SFJ      BGSF  67.0  -50.7      165 -3       E    
10    10 Thule… Thule Greenl… THU      BGTL  76.5  -68.7      251 -4       E    
# ℹ 7,688 more rows
# ℹ 3 more variables: X12 <chr>, X13 <chr>, X14 <chr>

Then, we’ll load a dataset on airline flight routes across the world:

#  Load and format routes data
routes <- read_csv("https://raw.githubusercontent.com/jpatokal/openflights/master/data/routes.dat",
                   col_names = c("airline", "airlineID", "sourceAirport", 
                                 "sourceAirportID", "destinationAirport", 
                                 "destinationAirportID", "codeshare", "stops",
                                 "equipment"))
# Here's what the data look like:
routes

# A tibble: 67,663 × 9
   airline airlineID sourceAirport sourceAirportID destinationAirport
   <chr>   <chr>     <chr>         <chr>           <chr>             
 1 2B      410       AER           2965            KZN               
 2 2B      410       ASF           2966            KZN               
 3 2B      410       ASF           2966            MRV               
 4 2B      410       CEK           2968            KZN               
 5 2B      410       CEK           2968            OVB               
 6 2B      410       DME           4029            KZN               
 7 2B      410       DME           4029            NBC               
 8 2B      410       DME           4029            TGK               
 9 2B      410       DME           4029            UUA               
10 2B      410       EGO           6156            KGD               
# ℹ 67,653 more rows
# ℹ 4 more variables: destinationAirportID <chr>, codeshare <chr>, stops <dbl>,
#   equipment <chr>
…
