Demo 14: Tidy Text Data and Sentiment Analysis – Statistical Graphics and Visualization 36-315 Spring 25
…
Sentiment Analysis

There are also techniques for measuring the overall “sentiment” of a document. These techniques are usually dictionary-based; for example, one can come up with a list of “positive” words and “negative” words (i.e., positive and negative dictionaries), and then count the number of positive and negative words that occur in a document. Thus, you can get an aggregate measure of how “positive” or “negative” a piece of text is. There are many different ways to define the “sentiment” of text (see the References and Resources section below); for this example, we’re just going to focus on “positive” versus “negative” text.

Again we’re going to focus on the episode’s script, and first, we’re going to process the data as we did before in the previous section. However, unlike the previous section, we are not going to remove stop words or perform stemming - for sentiment analysis, it’s important to keep individual words that may have certain types of sentiment.

tidy_all_tokens <- dinner_party_table |>
  unnest_tokens(word, text)

Now: Which of these words are “positive” words and which of these words are “negative” words? There’s a function in the tidytext library called get_sentiments(). There are many different “sentiment dictionaries” available within this function, and we’re going to just focus on get_sentiments("bing"), which provides a bunch of words that are deemed either “positive” or “negative” in a binary fashion:

get_sentiments("bing")

# A tibble: 6,786 × 2
   word        sentiment
   <chr>       <chr>    
 1 2-faces     negative 
 2 abnormal    negative 
 3 abolish     negative 
 4 abominable  negative 
 5 abominably  negative 
 6 abominate   negative 
 7 abomination negative 
 8 abort       negative 
 9 aborted     negative 
10 aborts      negative 
# ℹ 6,776 more rows
…
