Demo 15: Topic Models – Statistical Graphics and Visualization 36-315 Spring 25
…
For each document, the proportion of each topic (there will be k = 2 of these for each document/episode). These proportions will be called gamma.

For each topic, the probability of a certain word occurring (there are 7226 words, so there will be 7226 of these for each topic). These probabilities will be called beta.

Typically, it’s much more interesting to look at the second item (the probability of certain words occurring within a given topic) so we are going to focus on visualizing that below. We’ll discuss the first item afterwards.

Word-topic probabilities

The tidy() function within the tidytext package provides an easy way to extract the per-topic-per-word probabilities, called \(\beta\) (“beta”), from the model.

st_topics <- tidy(st_lda, matrix = "beta")
st_topics

# A tibble: 14,452 × 3
   topic term      beta
   <int> <chr>    <dbl>
 1     1 00    8.62e- 4
 2     2 00    6.96e- 4
 3     1 10    2.40e- 4
 4     2 10    4.64e- 5
 5     1 100   3.32e- 4
 6     2 100   9.72e- 5
 7     1 12    2.38e- 4
 8     2 12    4.89e- 5
 9     1 12.3  4.81e- 5
10     2 12.3  1.11e-90
# ℹ 14,442 more rows
…
To answer this question, let’s consider the terms that have the greatest difference in \(\beta\) between Topic 1 and Topic 2. This can be estimated based on the log ratio of the two: \(\log_2(\frac{\beta_2}{\beta_1})\) (a log ratio is useful because it makes the difference symmetric: \(\beta_2\) being twice as large leads to a log ratio of 1, while \(\beta_1\) being twice as large results in -1). To constrain it to a set of especially relevant words, we can filter for relatively common words, such as those that have a \(\beta\) greater than 1/1000 in at least one topic. (This is another threshold that is more an art than a science; in practice, you have to toy around with this threshold until you get a visual that seems to produce “conceptual separation” between the two topics.)

To get at this question, it’s useful to create a dataset where you have (for each word) the betas for each topic side by side, as well as their log-ratio. There are many ways to do this, but we opt to use the pivot_wider() function:

beta_spread <- st_topics |>
  mutate(topic = paste0("topic", topic)) |>
  pivot_wider(names_from = topic, values_from = beta) |>
  filter(topic1 > .001 | topic2 > .001) |>
  mutate(log_ratio = log2(topic2 / topic1)) |>
  arrange(log_ratio)

beta_spread

# A tibble: 213 × 4
   term        topic1    topic2 log_ratio
   <chr>        <dbl>     <dbl>     <dbl>
 1 mama       0.00135 0.0000471     -4.84
 2 suzie      0.00173 0.0000979     -4.14
 3 sunflower  0.00101 0.0000922     -3.45
 4 bob        0.00149 0.000231      -2.69
 5 demogorgon 0.00105 0.000190      -2.47
 6 breathe    0.00225 0.000429      -2.39
 7 russians   0.00116 0.000225      -2.37
 8 rainbow    0.00135 0.000279      -2.27
 9 field      0.00109 0.000343      -1.66
10 barb       0.00129 0.000428      -1.59
# ℹ 203 more rows
…
The way to interpret the above plot is that very positive values indicate that that word is relatively “important” for Topic 2, while very negative values indicate relative “importance” for Topic 1. We can see that the most important words in Topic 2 include words related to Season 4 of the show like “nina”, “yuri”, and “munson”. Topic 1 appears to be more characterized by words and names from the first three seasons like “barb” and “clark” (their teacher!). This type of analysis can help identify differences between topics.

Document-topic probabilities

Besides estimating each topic as a mixture of words, LDA also models each document as a mixture of topics. Similar to what we did in the previous section, we can examine the per-document-per-topic probabilities, called \(\gamma\) (“gamma”), with the matrix = "gamma" argument to tidy():

st_documents <- tidy(st_lda, matrix = "gamma")
st_documents

# A tibble: 68 × 3
   document topic     gamma
   <chr>    <int>     <dbl>
 1 1_1          1 1.00     
 2 1_2          1 1.00     
 3 1_3          1 0.976    
 4 1_4          1 0.202    
 5 1_5          1 0.0000384
 6 1_6          1 1.00     
 7 1_7          1 1.00     
 8 1_8          1 1.00     
 9 2_1          1 1.00     
10 2_2          1 0.0000356
# ℹ 58 more rows
…
